{
    "count": 49,
    "next": "http://127.0.0.1:8001/api/v1/nodes/?limit=25&offset=25&search=abc",
    "previous": null,
    "results": [
        {
            "id": 12720,
            "identifier": "GO:0043190",
            "identifier_type": "str",
            "name": "ATP-binding cassette (ABC) transporter complex",
            "url": "http://purl.obolibrary.org/obo/GO_0043190",
            "data": {
                "url": "http://purl.obolibrary.org/obo/GO_0043190",
                "source": "Gene Ontology",
                "license": "CC BY 4.0"
            },
            "metanode": "Cellular Component"
        },
        {
            "id": 14874,
            "identifier": "19",
            "identifier_type": "int",
            "name": "ABCA1",
            "url": "http://identifiers.org/ncbigene/19",
            "data": {
                "url": "http://identifiers.org/ncbigene/19",
                "source": "Entrez Gene",
                "license": "CC0 1.0",
                "chromosome": "9",
                "description": "ATP-binding cassette, sub-family A (ABC1), member 1"
            },
            "metanode": "Gene"
        },
        {
            "id": 14875,
            "identifier": "20",
            "identifier_type": "int",
            "name": "ABCA2",
            "url": "http://identifiers.org/ncbigene/20",
            "data": {
                "url": "http://identifiers.org/ncbigene/20",
                "source": "Entrez Gene",
                "license": "CC0 1.0",
                "chromosome": "9",
                "description": "ATP-binding cassette, sub-family A (ABC1), member 2"
            },
            "metanode": "Gene"
        },
        {
            "id": 14876,
            "identifier": "21",
            "identifier_type": "int",
            "name": "ABCA3",
            "url": "http://identifiers.org/ncbigene/21",
            "data": {
                "url": "http://identifiers.org/ncbigene/21",
                "source": "Entrez Gene",
                "license": "CC0 1.0",
                "chromosome": "16",
                "description": "ATP-binding cassette, sub-family A (ABC1), member 3"
            },
            "metanode": "Gene"
        },
        {
            "id": 14877,
            "identifier": "22",
            "identifier_type": "int",
            "name": "ABCB7",
            "url": "http://identifiers.org/ncbigene/22",
            "data": {
                "url": "http://identifiers.org/ncbigene/22",
                "source": "Entrez Gene",
                "license": "CC0 1.0",
                "chromosome": "X",
                "description": "ATP-binding cassette, sub-family B (MDR/TAP), member 7"
            },
            "metanode": "Gene"
        },
        {
            "id": 14878,
            "identifier": "23",
            "identifier_type": "int",
            "name": "ABCF1",
            "url": "http://identifiers.org/ncbigene/23",
            "data": {
                "url": "http://identifiers.org/ncbigene/23",
                "source": "Entrez Gene",
                "license": "CC0 1.0",
                "chromosome": "6",
                "description": "ATP-binding cassette, sub-family F (GCN20), member 1"
            },
            "metanode": "Gene"
        },
        {
            "id": 14879,
            "identifier": "24",
            "identifier_type": "int",
            "name": "ABCA4",
            "url": "http://identifiers.org/ncbigene/24",
            "data": {
                "url": "http://identifiers.org/ncbigene/24",
                "source": "Entrez Gene",
                "license": "CC0 1.0",
                "chromosome": "1",
                "description": "ATP-binding cassette, sub-family A (ABC1), member 4"
            },
            "metanode": "Gene"
        },
        {
            "id": 15013,
            "identifier": "215",
            "identifier_type": "int",
            "name": "ABCD1",
            "url": "http://identifiers.org/ncbigene/215",
            "data": {
                "url": "http://identifiers.org/ncbigene/215",
                "source": "Entrez Gene",
                "license": "CC0 1.0",
                "chromosome": "X",
                "description": "ATP-binding cassette, sub-family D (ALD), member 1"
            },
            "metanode": "Gene"
        },
        {
            "id": 15023,
            "identifier": "225",
            "identifier_type": "int",
            "name": "ABCD2",
            "url": "http://identifiers.org/ncbigene/225",
            "data": {
                "url": "http://identifiers.org/ncbigene/225",
                "source": "Entrez Gene",
                "license": "CC0 1.0",
                "chromosome": "12",
                "description": "ATP-binding cassette, sub-family D (ALD), member 2"
            },
            "metanode": "Gene"
        },
        {
            "id": 15127,
            "identifier": "368",
            "identifier_type": "int",
            "name": "ABCC6",
            "url": "http://identifiers.org/ncbigene/368",
            "data": {
                "url": "http://identifiers.org/ncbigene/368",
                "source": "Entrez Gene",
                "license": "CC0 1.0",
                "chromosome": "16",
                "description": "ATP-binding cassette, sub-family C (CFTR/MRP), member 6"
            },
            "metanode": "Gene"
        },
        {
            "id": 15739,
            "identifier": "1244",
            "identifier_type": "int",
            "name": "ABCC2",
            "url": "http://identifiers.org/ncbigene/1244",
            "data": {
                "url": "http://identifiers.org/ncbigene/1244",
                "source": "Entrez Gene",
                "license": "CC0 1.0",
                "chromosome": "10",
                "description": "ATP-binding cassette, sub-family C (CFTR/MRP), member 2"
            },
            "metanode": "Gene"
        },
        {
            "id": 17833,
            "identifier": "4363",
            "identifier_type": "int",
            "name": "ABCC1",
            "url": "http://identifiers.org/ncbigene/4363",
            "data": {
                "url": "http://identifiers.org/ncbigene/4363",
                "source": "Entrez Gene",
                "license": "CC0 1.0",
                "chromosome": "16",
                "description": "ATP-binding cassette, sub-family C (CFTR/MRP), member 1"
            },
            "metanode": "Gene"
        },
        {
            "id": 18384,
            "identifier": "5243",
            "identifier_type": "int",
            "name": "ABCB1",
            "url": "http://identifiers.org/ncbigene/5243",
            "data": {
                "url": "http://identifiers.org/ncbigene/5243",
                "source": "Entrez Gene",
                "license": "CC0 1.0",
                "chromosome": "7",
                "description": "ATP-binding cassette, sub-family B (MDR/TAP), member 1"
            },
            "metanode": "Gene"
        },
        {
            "id": 18385,
            "identifier": "5244",
            "identifier_type": "int",
            "name": "ABCB4",
            "url": "http://identifiers.org/ncbigene/5244",
            "data": {
                "url": "http://identifiers.org/ncbigene/5244",
                "source": "Entrez Gene",
                "license": "CC0 1.0",
                "chromosome": "7",
                "description": "ATP-binding cassette, sub-family B (MDR/TAP), member 4"
            },
            "metanode": "Gene"
        },
        {
            "id": 18823,
            "identifier": "5825",
            "identifier_type": "int",
            "name": "ABCD3",
            "url": "http://identifiers.org/ncbigene/5825",
            "data": {
                "url": "http://identifiers.org/ncbigene/5825",
                "source": "Entrez Gene",
                "license": "CC0 1.0",
                "chromosome": "1",
                "description": "ATP-binding cassette, sub-family D (ALD), member 3"
            },
            "metanode": "Gene"
        },
        {
            "id": 18824,
            "identifier": "5826",
            "identifier_type": "int",
            "name": "ABCD4",
            "url": "http://identifiers.org/ncbigene/5826",
            "data": {
                "url": "http://identifiers.org/ncbigene/5826",
                "source": "Entrez Gene",
                "license": "CC0 1.0",
                "chromosome": "14",
                "description": "ATP-binding cassette, sub-family D (ALD), member 4"
            },
            "metanode": "Gene"
        },
        {
            "id": 18988,
            "identifier": "6059",
            "identifier_type": "int",
            "name": "ABCE1",
            "url": "http://identifiers.org/ncbigene/6059",
            "data": {
                "url": "http://identifiers.org/ncbigene/6059",
                "source": "Entrez Gene",
                "license": "CC0 1.0",
                "chromosome": "4",
                "description": "ATP-binding cassette, sub-family E (OABP), member 1"
            },
            "metanode": "Gene"
        },
        {
            "id": 19565,
            "identifier": "6833",
            "identifier_type": "int",
            "name": "ABCC8",
            "url": "http://identifiers.org/ncbigene/6833",
            "data": {
                "url": "http://identifiers.org/ncbigene/6833",
                "source": "Entrez Gene",
                "license": "CC0 1.0",
                "chromosome": "11",
                "description": "ATP-binding cassette, sub-family C (CFTR/MRP), member 8"
            },
            "metanode": "Gene"
        },
        {
            "id": 20594,
            "identifier": "8647",
            "identifier_type": "int",
            "name": "ABCB11",
            "url": "http://identifiers.org/ncbigene/8647",
            "data": {
                "url": "http://identifiers.org/ncbigene/8647",
                "source": "Entrez Gene",
                "license": "CC0 1.0",
                "chromosome": "2",
                "description": "ATP-binding cassette, sub-family B (MDR/TAP), member 11"
            },
            "metanode": "Gene"
        },
        {
            "id": 20646,
            "identifier": "8714",
            "identifier_type": "int",
            "name": "ABCC3",
            "url": "http://identifiers.org/ncbigene/8714",
            "data": {
                "url": "http://identifiers.org/ncbigene/8714",
                "source": "Entrez Gene",
                "license": "CC0 1.0",
                "chromosome": "17",
                "description": "ATP-binding cassette, sub-family C (CFTR/MRP), member 3"
            },
            "metanode": "Gene"
        },
        {
            "id": 21161,
            "identifier": "9429",
            "identifier_type": "int",
            "name": "ABCG2",
            "url": "http://identifiers.org/ncbigene/9429",
            "data": {
                "url": "http://identifiers.org/ncbigene/9429",
                "source": "Entrez Gene",
                "license": "CC0 1.0",
                "chromosome": "4",
                "description": "ATP-binding cassette, sub-family G (WHITE), member 2 (Junior blood group)"
            },
            "metanode": "Gene"
        },
        {
            "id": 21306,
            "identifier": "9619",
            "identifier_type": "int",
            "name": "ABCG1",
            "url": "http://identifiers.org/ncbigene/9619",
            "data": {
                "url": "http://identifiers.org/ncbigene/9619",
                "source": "Entrez Gene",
                "license": "CC0 1.0",
                "chromosome": "21",
                "description": "ATP-binding cassette, sub-family G (WHITE), member 1"
            },
            "metanode": "Gene"
        },
        {
            "id": 21679,
            "identifier": "10057",
            "identifier_type": "int",
            "name": "ABCC5",
            "url": "http://identifiers.org/ncbigene/10057",
            "data": {
                "url": "http://identifiers.org/ncbigene/10057",
                "source": "Entrez Gene",
                "license": "CC0 1.0",
                "chromosome": "3",
                "description": "ATP-binding cassette, sub-family C (CFTR/MRP), member 5"
            },
            "metanode": "Gene"
        },
        {
            "id": 21680,
            "identifier": "10058",
            "identifier_type": "int",
            "name": "ABCB6",
            "url": "http://identifiers.org/ncbigene/10058",
            "data": {
                "url": "http://identifiers.org/ncbigene/10058",
                "source": "Entrez Gene",
                "license": "CC0 1.0",
                "chromosome": "2",
                "description": "ATP-binding cassette, sub-family B (MDR/TAP), member 6 (Langereis blood group)"
            },
            "metanode": "Gene"
        },
        {
            "id": 21682,
            "identifier": "10060",
            "identifier_type": "int",
            "name": "ABCC9",
            "url": "http://identifiers.org/ncbigene/10060",
            "data": {
                "url": "http://identifiers.org/ncbigene/10060",
                "source": "Entrez Gene",
                "license": "CC0 1.0",
                "chromosome": "12",
                "description": "ATP-binding cassette, sub-family C (CFTR/MRP), member 9"
            },
            "metanode": "Gene"
        }
    ]
}
